<?xml version="1.0" encoding="utf-8"?>
<!-- Generator: Adobe Illustrator 24.0.1, SVG Export Plug-In . SVG Version: 6.00 Build 0)  -->
<svg version="1.1" id="Capa_1" xmlns="http://www.w3.org/2000/svg" xmlns:xlink="http://www.w3.org/1999/xlink" x="0px" y="0px"
	 viewBox="0 0 200 86" style="enable-background:new 0 0 200 86;" xml:space="preserve">
<style type="text/css">
	.st0{fill:#606060;}
	.st1{fill-rule:evenodd;clip-rule:evenodd;fill:#606060;}
</style>
<g>
	<g>
		<path class="st0" d="M118.3,28.9L118.3,28.9l-1.6,0c-8.5,0-16.6,6.3-16.9,18.5c-0.3,11.1,5.5,18.9,15.3,18.9
			c8,0,10.9-5.6,10.9-5.6c0.5,3.7,2.5,4.9,6.5,4.9V34.2v-5.2H118.3z M125.6,50.6c0,5.1-2.9,9.9-9.2,9.9c-5.7,0-9.8-3.8-9.5-13
			c0.3-8.8,4.5-12.6,10.1-12.6c0.4,0,0.8,0,1.2,0h7.4V50.6z"/>
		<path class="st0" d="M61.2,28.6l0,25.5c0,3.7-3.1,5.6-7.1,5.6c-4.3,0-7.1-1.9-7.1-5.6l0-19.1c0-5.4-3.4-6.4-6.4-6.4v27.1
			c0,6.8,6.2,10.2,13.4,10.2c6.9,0,13.8-3.4,13.8-10.2l0-19.8C67.6,30.5,65.6,28.6,61.2,28.6L61.2,28.6z"/>
		<path class="st0" d="M76.9,42.7v22.7l6.4,0V42.5c0-4.9,2.6-7.8,7.6-7.8h1.9c5.6,0,6.5-2.9,6.5-6h-9C82.4,28.6,76.9,33.3,76.9,42.7
			L76.9,42.7z"/>
		<path class="st0" d="M24,45.1L16.1,43c-2.2-0.6-4.1-1.5-4.1-4.2c0-2.7,1.7-4.1,5.2-4.1h7c3.1,0,6.8-1,6.8-6l-13.1,0
			C9.6,28.7,5,32.8,5,38.6c0,5.5,3.5,8.5,9.6,10.2l6.8,1.8c2.8,0.8,3.8,2.5,3.8,4.4c0,2.8-1.7,4.4-6,4.5L6.2,59.5v6h13.4
			c8.1,0,12.7-4.3,12.7-10.1C32.3,49.6,30,46.8,24,45.1L24,45.1z"/>
		<path class="st1" d="M168.3,73.7c0.1,0,0.1,0.1,0.1,0.2c-0.9,2.2-2,3.8-4,4.9c-3.6,1.8-5.5,0.8-5.7,0.6c-0.1,0-0.1-0.1-0.1-0.2
			c0-0.1,0.1-0.2,0.2-0.2c1.5-0.5,6.2-2.2,9.4-5.3C168.3,73.7,168.3,73.7,168.3,73.7L168.3,73.7z M168.8,67.2
			c-2.4,1.5-7.5,3.6-11.9,4.9c-5.2,1.5-9.5,2.2-12.3,1.8c-2.5-0.4-3.7-1.5-4.1-1.9c0-0.1-0.1-0.1-0.1-0.2c0-0.1,0.1-0.2,0.2-0.2
			l1-0.1c2.1-0.1,5.9-0.2,10.2-0.9c5.1-0.7,13.2-2.2,16.9-3.6C168.8,67,168.9,67.1,168.8,67.2L168.8,67.2z M169.1,69.4
			c0.1,0,0.1,0.1,0.1,0.2c-0.7,0.9-1.9,2-3.4,3.1c-1.5,1.1-3.3,2.1-5.2,3c-2,0.9-3.7,1.7-5.5,2.2c-2,0.5-3.8,0.7-5.3,0.5
			c-1.2-0.1-2.2-0.5-2.9-1.1c0,0-0.1-0.1-0.1-0.1c0-0.1,0.1-0.2,0.2-0.2c4.5-0.7,8.7-1.9,12.6-3.2C163.6,72.6,166.8,71,169.1,69.4
			L169.1,69.4z M189.2,51.1c0.1,0,0.1,0.1,0.1,0.2c-1.8,1.5-10.1,8.4-14.6,12.1l-0.2,0.1c-1.3,1-2.2,1.2-2.3-0.9
			c-0.1-0.5-0.1-0.9-0.1-0.9c-0.1-0.5,0.1-0.4,0.2-0.5c1.4-0.9,4.2-2.4,6.5-3.8C182.8,55,187.4,52.2,189.2,51.1L189.2,51.1z
			 M183.1,60.4c0.1,0,0.1,0.1,0.1,0.2c-1.8,2.1-8.4,9.3-11.4,12.5c-0.3,0.3-0.5,0.2-0.3-0.1c0,0,0.6-1.4,0.8-2.5
			c0.1-0.7,0.3-1.2,0.7-1.5c3.9-3.3,7.6-6.5,10.1-8.5L183.1,60.4L183.1,60.4z M191.3,47.6c0,0,0.2,0,0.2,0c0,0,0.1,0.1,0,0.2
			c-0.9,0.5-19.4,8.2-19.6,8.3c-1,0.4-2.2,0.5-3-0.9c-0.4-0.6-0.7-1.1-0.8-1.3c-0.1-0.1-0.3-0.3,0.3-0.5c0,0,5.2-1.4,9.9-2.6
			C183.6,49.5,189.7,48,191.3,47.6L191.3,47.6z M193.2,44.9c0.1,0,0.1,0.1,0.1,0.1c0,0-0.1,0.1-0.1,0.1c-1.4,0.2-27.2,3.7-27.4,3.8
			c-0.1,0-0.3,0-0.5,0c-0.1,0-0.3,0-0.4,0c-1.2-0.1-2.4-0.7-3.5-1.9c-0.6-0.6-1-1.5-1.2-1.9c0-0.1,0-0.1,0-0.2
			c0-0.1,0.1-0.1,0.2-0.1c0,0,8.7,0,14.1,0c4.1,0,8.4,0,11.9,0C189.6,44.9,192,44.9,193.2,44.9L193.2,44.9z M194.9,42.6
			c0.1,0,0.1,0.1,0.1,0.1c0,0.1-0.1,0.1-0.2,0.1c-3.8-0.3-37.7-2.7-37.7-2.7c-0.3,0-0.6-0.1-0.9-0.2c-2.7-0.9-4.3-2.9-4.9-5
			c0-0.1,0-0.2,0-0.2c0-0.1,0.1-0.1,0.2-0.1C151.6,34.7,191.6,42,194.9,42.6L194.9,42.6z M187.9,36c0,0.2,0,0.2-0.2,0.2
			c-1.4-0.7-4.7-2.3-8.1-4c-2.8-1.4-21.9-10.4-23.2-11.1l-2.3-1.2c-0.3-0.2-0.7-0.4-1-0.5c-0.9-0.5-1.4-1-1.9-1.6
			c-0.4-0.5-0.7-1.1-1-1.8c-0.5-1.4-0.5-3.2-0.5-3.5c0,0,0-0.1,0.1-0.1c0.1,0,0.1,0,0.2,0l2.4,1.4l1.3,0.8l7,4.3
			C170.6,25.1,184.3,33.8,187.9,36L187.9,36z M192,40c0.1,0,0.1,0.1,0.1,0.1c0,0.1-0.1,0.1-0.2,0.1c-1.1-0.3-3.3-0.9-6.2-1.7
			c-6.5-1.8-31.3-8.4-31.7-8.6l-0.1,0c-1.5-0.5-2.7-1.2-3.6-2.2c-0.3-0.3-0.5-0.6-0.7-1c-0.8-1.3-1.1-3.1-1.1-3.4c0,0,0-0.1,0.1-0.2
			c0,0,0.1-0.1,0.2,0l4,1.6C162.4,28.4,187.9,38.3,192,40L192,40z"/>
	</g>
	<g>
		<path class="st0" d="M6.1,6.2h3.6c1.7,0,3.1,0.8,3.1,2.5c0,1.3-0.9,2.2-2.5,2.4v0c2,0.1,2.4,1.1,2.4,2.4v1c0,0.5,0.1,0.9,0.4,1.3
			h-0.8C12.1,15.5,12,15,12,14.5v-1c0-1.4-0.5-2.2-2.5-2.2H6.8v4.4H6.1V6.2z M9.1,10.9c1.4,0,2.9-0.3,2.9-2.2c0-1.3-0.9-2-2.5-2H6.8
			v4.2H9.1z"/>
		<path class="st0" d="M15.1,12.2c0,1.1,0,3.2,2.1,3.2c1.9,0,2.2-1.5,2.2-2h0.7c0,1.1-0.8,2.5-2.8,2.5c-2.4,0-3-1.5-3-3.9
			c0-2.1,1-3.5,3.1-3.5c2.1,0,2.8,1.4,2.8,3.6H15.1z M19.5,11.8c0-1.3-0.3-2.7-2.1-2.7c-2,0-2.3,1.8-2.3,2.7H19.5z"/>
		<path class="st0" d="M25.6,10.7v-0.2c0-0.6-0.2-1.5-1.7-1.5c-1,0-1.8,0.4-1.8,1.3c0,0.7,0.5,1.1,1.4,1.4l1.4,0.4
			c1.1,0.3,1.7,0.9,1.7,1.9c0,1.2-1.2,1.9-2.6,1.9c-2.5,0-2.7-1.4-2.7-2.2v-0.2h0.7v0.2c0,1,0.5,1.7,2,1.7c1.3,0,1.9-0.7,1.9-1.5
			c0-0.7-0.4-1.1-1.4-1.4l-1.3-0.4c-1.1-0.3-1.7-0.9-1.7-1.8c0-1.2,1-1.8,2.5-1.8c2,0,2.4,1.1,2.4,1.9v0.2H25.6z"/>
		<path class="st0" d="M27.9,8.7h0.7V10h0c0.3-0.7,0.9-1.4,2.3-1.4c2.2,0,2.8,1.6,2.8,3.6c0,2.2-0.7,3.7-2.8,3.7
			c-1.3,0-2.1-0.6-2.3-1.5h0v3.7h-0.7V8.7z M30.8,15.5c1.8,0,2.2-1.4,2.2-3.2C33,10,32.1,9,30.9,9c-1.7,0-2.4,1-2.4,3.2
			C28.5,14.3,29.1,15.5,30.8,15.5z"/>
		<path class="st0" d="M40.2,14.9c0,0.3,0.2,0.5,0.4,0.5c0.2,0,0.3,0,0.4-0.1v0.4c-0.1,0.1-0.4,0.1-0.7,0.1c-0.3,0-0.8-0.2-0.8-0.8
			v-0.4h0c-0.3,0.7-1.2,1.3-2.4,1.3c-1.6,0-2.3-0.9-2.3-2c0-1.1,0.6-1.7,1.9-1.9l2-0.4c0.8-0.2,0.9-0.4,0.9-1c0-1.3-0.8-1.5-1.8-1.5
			c-1.5,0-2,0.7-2,1.7h-0.7c0-1,0.5-2.2,2.6-2.2c2,0,2.5,0.8,2.5,1.8V14.9z M39.5,11.7L39.5,11.7c-0.3,0.3-0.5,0.3-1.2,0.5L37,12.4
			c-1.1,0.2-1.4,0.7-1.4,1.5c0,0.9,0.5,1.5,1.7,1.5c1.6,0,2.3-0.9,2.3-2.3V11.7z"/>
		<path class="st0" d="M42.1,6.2h0.7v9.6h-0.7V6.2z"/>
		<path class="st0" d="M49.6,14.4L49.6,14.4c-0.3,1-1.1,1.5-2.3,1.5c-2.1,0-2.8-1.5-2.8-3.7c0-2.1,0.6-3.6,2.9-3.6
			c1.3,0,1.9,0.6,2.3,1.4h0V6.2h0.7v9.6h-0.7V14.4z M47.4,15.5c1.6,0,2.2-1.2,2.2-3.2c0-2.3-0.9-3.2-2.3-3.2c-1.6,0-2.2,1.1-2.2,3.2
			C45.1,14,45.6,15.5,47.4,15.5z"/>
		<path class="st0" d="M57,14.9c0,0.3,0.2,0.5,0.4,0.5c0.2,0,0.3,0,0.4-0.1v0.4c-0.1,0.1-0.4,0.1-0.7,0.1c-0.3,0-0.8-0.2-0.8-0.8
			v-0.4h0c-0.3,0.7-1.2,1.3-2.4,1.3c-1.6,0-2.3-0.9-2.3-2c0-1.1,0.6-1.7,1.9-1.9l2-0.4c0.8-0.2,0.9-0.4,0.9-1c0-1.3-0.8-1.5-1.8-1.5
			c-1.5,0-2,0.7-2,1.7h-0.7c0-1,0.5-2.2,2.6-2.2c2,0,2.5,0.8,2.5,1.8V14.9z M56.3,11.7L56.3,11.7c-0.3,0.3-0.5,0.3-1.2,0.5l-1.3,0.3
			c-1.1,0.2-1.4,0.7-1.4,1.5c0,0.9,0.5,1.5,1.7,1.5c1.6,0,2.3-0.9,2.3-2.3V11.7z"/>
		<path class="st0" d="M63.8,14.4L63.8,14.4c-0.3,1-1.1,1.5-2.3,1.5c-2.1,0-2.8-1.5-2.8-3.7c0-2.1,0.6-3.6,2.9-3.6
			c1.3,0,1.9,0.6,2.3,1.4h0V6.2h0.7v9.6h-0.7V14.4z M61.6,15.5c1.6,0,2.2-1.2,2.2-3.2c0-2.3-0.9-3.2-2.3-3.2c-1.6,0-2.2,1.1-2.2,3.2
			C59.3,14,59.8,15.5,61.6,15.5z"/>
		<path class="st0" d="M69,15.9c-2.4,0-3-1.6-3-3.7c0-2,0.6-3.7,3.1-3.7c2.4,0,3,1.6,3,3.7C72.2,14.3,71.6,15.9,69,15.9z M69.1,9
			c-1.7,0-2.3,1.2-2.3,3.2c0,2,0.6,3.2,2.3,3.2c1.7,0,2.3-1.2,2.3-3.2C71.4,10.2,70.8,9,69.1,9z"/>
		<path class="st0" d="M77.9,8.7h0.7V10h0c0.3-0.7,0.9-1.4,2.3-1.4c2.2,0,2.8,1.6,2.8,3.6c0,2.2-0.7,3.7-2.8,3.7
			c-1.3,0-2.1-0.6-2.3-1.5h0v3.7h-0.7V8.7z M80.8,15.5c1.8,0,2.2-1.4,2.2-3.2C83,10,82.2,9,80.9,9c-1.7,0-2.4,1-2.4,3.2
			C78.6,14.3,79.2,15.5,80.8,15.5z"/>
		<path class="st0" d="M88.1,15.9c-2.4,0-3-1.6-3-3.7c0-2,0.6-3.7,3.1-3.7c2.4,0,3,1.6,3,3.7C91.2,14.3,90.6,15.9,88.1,15.9z
			 M88.1,9c-1.7,0-2.3,1.2-2.3,3.2c0,2,0.6,3.2,2.3,3.2s2.3-1.2,2.3-3.2C90.5,10.2,89.9,9,88.1,9z"/>
		<path class="st0" d="M92.7,8.7h0.7V10h0c0.3-0.8,1.1-1.4,2.3-1.4h0.4V9h-0.4c-1.6,0-2.3,1.1-2.3,2.3v4.4h-0.7V8.7z"/>
		<path class="st0" d="M97.8,9.1h0.7v1.4h-0.7V9.1z M97.8,14.4h0.7v1.4h-0.7V14.4z"/>
	</g>
</g>
</svg>
